{
    "data": [
        {
            "name": "d",
            "email": "d@mail.com"
        },
        {
            "name": "e",
            "email": "e@mail.com"
        },
        {
            "name": "f",
            "email": "f@mail.com"
        }
    ],
    "total": 10,
    "page": "2",
    "last_page": 4
}